Literary Quality of Dutch Novels with litRiddle
…
From tokens to text

Usually one will probably want to work with the full text of
motivations. A convenience function motivations.text() is
provided to create a view that has one motivation per row:

# We're importing `dplyr` to use `tibble` so we can 
# show very large tables somewhat nicer.
suppressMessages(library(dplyr))  

mots = motivations.text()
tibble(mots)

## # A tibble: 11,950 × 4
##    motivation.id book.id respondent.id text                                     
##            <dbl>   <dbl>         <dbl> <chr>                                    
##  1             1      82             0 Het is een snel te lezen en snel te door…
##  2             2      46             1 Ik vond HhhH eerder een verslag van een …
##  3             3     153             2 het is goed verteld , heeft ook een hist…
##  4             4     239             3 Een prachtig verhaal en uitstekend gesch…
##  5             5     248             5 Het is een goed en snel verteld verhaal …
##  6             6     382             6 -                                        
##  7             7      91             7 Heel de opbouw van het verhaal , de pers…
##  8             8     311             8 Het is de combinatie van vorm en inhoud …
##  9             9     128            10 Wanneer ik denk dat ik een boek nogmaals…
## 10            10     392            11 Beeldend en goed geschreven .            
## # ℹ 11,940 more rows
…
Gathering all motivations for, for instance, one book, requires some
trivial merging. Let’s see what people said about Binet’s HhhH.
For this we select the book information of the book with ID 46 and we
left join (merge) that (book.id by book.id)
with the table mots having all the motivations:

mots_hhhh <- merge(x = books[books["book.id"]==46,], y = mots, by = "book.id", all.x = TRUE)
tibble(mots_hhhh)

## # A tibble: 64 × 28
##    book.id short.title author         title title.english genre   riddle.code   
##      <int> <fct>       <fct>          <fct> <fct>         <fct>   <fct>         
##  1      46 Binet_Hhhh  Binet, Laurent HhhH  HhhH          Fiction 301-302 (VERT…
##  2      46 Binet_Hhhh  Binet, Laurent HhhH  HhhH          Fiction 301-302 (VERT…
##  3      46 Binet_Hhhh  Binet, Laurent HhhH  HhhH          Fiction 301-302 (VERT…
##  4      46 Binet_Hhhh  Binet, Laurent HhhH  HhhH          Fiction 301-302 (VERT…
##  5      46 Binet_Hhhh  Binet, Laurent HhhH  HhhH          Fiction 301-302 (VERT…
##  6      46 Binet_Hhhh  Binet, Laurent HhhH  HhhH          Fiction 301-302 (VERT…
##  7      46 Binet_Hhhh  Binet, Laurent HhhH  HhhH          Fiction 301-302 (VERT…
##  8      46 Binet_Hhhh  Binet, Laurent HhhH  HhhH          Fiction 301-302 (VERT…
##  9      46 Binet_Hhhh  Binet, Laurent HhhH  HhhH          Fiction 301-302 (VERT…
## 10      46 Binet_Hhhh  Binet, Laurent HhhH  HhhH          Fiction 301-302 (VERT…
## # ℹ 54 more rows
## # ℹ 21 more variables: riddle.code.english <fct>, translated <fct>,
## #   gender.author <fct>, origin.author <fct>, original.language <fct>,
## #   inclusion.criterion <fct>, publication.date <date>, first.print <int>,
## #   publisher <fct>, word.count <int>, type.count <int>,
## #   sentence.length.mean <dbl>, sentence.length.variance <dbl>,
## #   paragraph.count <int>, sentence.count <int>, paragraph.length.mean <dbl>, …

Hmm… pretty wide table, select the text column to get an
idea of what is being said, and print with the n parameter
to see more rows:

print(tibble(mots_hhhh[,"text"]), n = 40)

## # A tibble: 64 × 1
##    `mots_hhhh[, "text"]`                                                        
##    <chr>                                                                        
##  1 vanwege de verpakking                                                        
##  2 Het vertelperspectief , het feit dat de schrijver en onderzoeker ook op zijn…
##  3 Fictie en non-fictie ( geschiedenis ) gemengd , met gebruikmaking van litera…
##  4 Ja , dat kan ik . Hoewel het hier om non-fictie gaat , zet de auteur alle mo…
##  5 Omdat het zo is .                                                            
##  6 Op grond van het spel dat Binet speelt met de verwachtingen van de lezer , d…
##  7 Tussen historische roman en geromantiseerde historie .                       
##  8 Door de vorm waarin het geschreven is . Vooral de beschouwingen over bronnen…
##  9 ' Vanwege het complexe gedachtengoed dat deze roman rijk is taalgebruik is v…
## 10 de verteller neemt mij mee in de beschreven wereld. ik voel me aangesproken …
## 11 Het is fascinerend . Mooi spel met wat werkelijk gebeurd is en wat de schrij…
## 12 Plot en spanning in combinatie met historische context                       
## 13 Op een bijzondere wijze schakelt Binet regelmatig de lezer zelf in om zijn v…
## 14 Per ongeluk aangevinkt , niet gelezen , sorry                                
## 15 Het is een geweldig onderzoek en goed geschreven bovendien . Toch is het gee…
## 16 ' Het ging ' ergens over '.'                                                 
## 17 -                                                                            
## 18 Die kwaliteit ligt in de structuur en beeldende taal van het boek . Eeen goe…
## 19 Je moet in dit boek groeien . Dan laat het je niet meer los . Het blijft lan…
## 20 Het boek heeft meerdere lagen , en benadert vanuit een originele invalshoek …
## 21 Als of zelfs H nog een ziel kan hebben .                                     
## 22 mixture fictie en non-fictie                                                 
## 23 Het boek zet mij aan tot nadenken en is ' vloeiend ' geschreven .            
## 24 Het schrijfproces van de schrijver en zijn verhaal lopen in verschillende ho…
## 25 veel interieure monologen , bizarre gedachtenspinsels , geheimzinnige zinswe…
## 26 het heeft op mij een goede indruk gemaakt over het verleden                  
## 27 ' Ik baseer me slechts op een enkel hoofdstuk maar voor wat dat aangaat , is…
## 28 Zeer indringend geschreven , het is een buitengewoon gevoelig onderwerp , ma…
## 29 In het boek wordt op verfijnde wijze gespeeld met de grens tussen fictie en …
## 30 Er wordt niet alleen een verhaal verteld , de verteller is ook duidelijk vra…
## 31 schrijftsijl , opbouw                                                        
## 32 Ik vind het bijzonder hoe Binet non-fictie en fictie met elkaar weet te comb…
## 33 het is een nieuw genre : de persoonlijke biografie ( combinatie van biografi…
## 34 Echt andere vorm van verhalen , ernstig geschreven . In het Frans gelezen en…
## 35 Het is een verhalend soort non-fictie , gelezen in vertaling , dat wel , waa…
## 36 Interessant spel met het werk van de historicus : bevragen van de eigen meth…
## 37 Nee , dat kan ik moeilijk toelichten . De rol van de auteur zelf binnen het …
## 38 omdat het mij niet boeide                                                    
## 39 Ik vond het een vreselijk boek misschien dat ik daarom denk dat het in hoge …
## 40 Binet behandelt niet alleen de geschiedenis van Heydrich , maar ook de manie…
## # ℹ 24 more rows
…
If we also want to include review information, this requires another
merge. Rather than trying to combine all data in one huge statement, it
is usually easier to follow a step by step methog. First let’s collect
the motivations for HhhH. We will be more selective of columns.
If you compare the following query with the merge statement
above, you will find that we use only author and title from
books and only repsondent ID and the motivational text from
mots, while we use book.id from both to match
for merging.

mots_hhhh = merge(x = books[books["book.id"] == 46, c("book.id", "author", "title")], y = mots[, c("book.id", "respondent.id", "text")], by = "book.id", all.x = TRUE)
tibble(mots_hhhh)

## # A tibble: 64 × 5
##    book.id author         title respondent.id text                              
##      <int> <fct>          <fct>         <dbl> <chr>                             
##  1      46 Binet, Laurent HhhH            361 vanwege de verpakking             
##  2      46 Binet, Laurent HhhH           4503 Het vertelperspectief , het feit …
##  3      46 Binet, Laurent HhhH           9910 Fictie en non-fictie ( geschieden…
##  4      46 Binet, Laurent HhhH           1923 Ja , dat kan ik . Hoewel het hier…
##  5      46 Binet, Laurent HhhH            505 Omdat het zo is .                 
##  6      46 Binet, Laurent HhhH           1242 Op grond van het spel dat Binet s…
##  7      46 Binet, Laurent HhhH           4963 Tussen historische roman en gerom…
##  8      46 Binet, Laurent HhhH           1425 Door de vorm waarin het geschreve…
##  9      46 Binet, Laurent HhhH            968 ' Vanwege het complexe gedachteng…
## 10      46 Binet, Laurent HhhH           8986 de verteller neemt mij mee in de …
## # ℹ 54 more rows

We now have a new view that we can again merge with the information
in the reviews data:

tibble(merge(x = mots_hhhh, y = reviews, by = c("book.id", "respondent.id"), all.x = TRUE))

## # A tibble: 64 × 10
##    book.id respondent.id author       title text  quality.read literariness.read
##      <int>         <dbl> <fct>        <fct> <chr>        <dbl>             <dbl>
##  1      46             1 Binet, Laur… HhhH  Ik v…            7                 2
##  2      46          1022 Binet, Laur… HhhH  Een …            7                 6
##  3      46         10278 Binet, Laur… HhhH  veel…            7                 7
##  4      46         10350 Binet, Laur… HhhH  Het …            7                 5
##  5      46         10546 Binet, Laur… HhhH  Fant…            6                 7
##  6      46         10735 Binet, Laur… HhhH  Het …            7                 7
##  7      46         10980 Binet, Laur… HhhH  Stij…            6                 7
##  8      46          1121 Binet, Laur… HhhH  ' He…            6                 6
##  9      46         11443 Binet, Laur… HhhH  omda…            4                NA
## 10      46         11586 Binet, Laur… HhhH  Op e…            7                 7
## # ℹ 54 more rows
## # ℹ 3 more variables: quality.notread <dbl>, literariness.notread <dbl>,
## #   book.read <dbl>
…
# use interpretable column names
colnames(mots) = c("lemma", "upos", "freq")

# select only useful information, i.e. those lemma+pos combinations 
# that appear more than 0 times
mots = mots[mots['freq'] > 0, ]

# sort from most used to least used
mots = mots[order(mots$freq, decreasing = TRUE), ]

# finally show as a nicer looking table
tibble(mots)

## # A tibble: 10,749 × 3
##    lemma upos      freq
##    <fct> <fct>    <int>
##  1 het   PRON_DET  9889
##  2 de    PRON_DET  6983
##  3 een   PRON_DET  5586
##  4 ik    PRON_DET  5210
##  5 en    CONJ      5017
##  6 is    VERB      4756
##  7 van   ADP       3766
##  8 niet  ADV       3730
##  9 boek  NOUN      3573
## 10 in    ADP       2917
## # ℹ 10,739 more rows
…
